Components/RK/RK_tb.vcd
$date
  Tue Apr 02 17:44:01 2024
$end
$version
  GHDL v0
$end
$timescale
  1 fs
$end
$var reg 10 ! s_rk[9:0] $end
$var reg 10 " s_output[9:0] $end
$var reg 1 # s_i_rst $end
$var reg 1 $ s_i_clk $end
$scope module uut $end
$var reg 1 % i_clk $end
$var reg 1 & i_rst $end
$var reg 10 ' rk[9:0] $end
$var reg 10 ( output[9:0] $end
$var reg 10 ) stored_value[9:0] $end
$upscope $end
$enddefinitions $end
#0
b1010001001 !
bUUUUUUUUUU "
1#
0$
0%
1&
b1010001001 '
bUUUUUUUUUU (
b0000000000 )
#10000000
b0000000000 "
1$
1%
b0000000000 (
#20000000
0$
0%
#30000000
1$
1%
#40000000
0$
0%
#50000000
1$
1%
#60000000
0$
0%
#70000000
1$
1%
#80000000
0$
0%
#90000000
1$
1%
#100000000
b1100011011 !
0#
0$
0%
0&
b1100011011 '
#110000000
1$
1%
b1100011011 )
#111000000
b1101011011 !
b1101011011 '
#120000000
b1100011011 "
0$
0%
b1100011011 (
#130000000
1$
1%
b1101011011 )
#131000000
b1101011011 "
1#
1&
b1101011011 (
b0000000000 )
#140000000
b0000000000 "
0$
0%
b0000000000 (
