Components/FSM_K/FSMK_tb.vcd
$date
  Sat Mar 23 16:53:27 2024
$end
$version
  GHDL v0
$end
$timescale
  1 fs
$end
$var reg 1 ! s_add_en $end
$var reg 1 " s_rst $end
$var reg 1 # s_inc $end
$var reg 1 $ s_ck $end
$scope module uut $end
$var reg 1 % add_en $end
$var reg 1 & ck $end
$var reg 1 ' rst $end
$var reg 1 ( inc_en $end
$comment curr_state is not handled $end
$upscope $end
$enddefinitions $end
#0
U!
1"
0#
0$
U%
0&
1'
0(
#10000000
1$
1&
#20000000
0$
0&
#30000000
1$
1&
#40000000
0$
0&
#50000000
1$
1&
#60000000
0!
0"
0$
0%
0&
0'
#70000000
1$
1&
#71000000
1!
1%
#80000000
0$
0&
#90000000
1$
1&
#91000000
0!
0%
#100000000
0$
0&
#110000000
1$
1&
#111000000
1!
1%
#120000000
0$
0&
#130000000
1#
1$
1&
1(
#131000000
#140000000
0$
0&
#150000000
0#
1$
1&
0(
#151000000
#160000000
0$
0&
#170000000
1#
1$
1&
1(
#171000000
0!
0%
#180000000
0$
0&
#190000000
0#
1$
1&
0(
